lab3/Ex1/RAW/ALL0016/F0016MTH.CSV

Record Length,1.024000e+03,,          0.00000, -54.14850,
Sample Interval,1.233033e+00,,          1.23303, -52.94850,
Trigger Point,0.000000000000e+00,,          2.46607, -58.94850,
,,,          3.69910, -60.54850,
,,,          4.93213, -62.54850,
,,,          6.16517, -74.94850,
Source,MATH,,          7.39820, -59.74850,
Vertical Units,dB,,          8.63123, -55.34850,
Vertical Scale,1.000000e+01,,          9.86427, -53.74850,
Vertical Offset,0.000000e+00,,         11.09730, -56.54850,
Horizontal Units,Hz,,         12.33033, -59.74850,
Horizontal Scale,1.262626e+02,,         13.56337, -58.94850,
Pt Fmt,Y,,         14.79640, -59.74850,
Yzero,-3.494850e+01,,         16.02943, -68.54850,
Probe Atten,1.000000e+00,,         17.26247, -72.54850,
Model Number,TDS2012B,,         18.49550, -60.14850,
Serial Number,C067062,,         19.72854, -59.34850,
Firmware Version,FV:v22.11,,         20.96157, -65.74850,
,,,22.19460, -64.14850,
,,,23.42763, -64.14850,
,,,24.66066, -61.34850,
,,,25.89369, -59.34850,
,,,27.12672, -59.34850,
,,,28.35975, -61.34850,
,,,29.59278, -58.94850,
,,,30.82581, -59.34850,
,,,32.05884, -60.14850,
,,,33.29187, -60.94850,
,,,34.52490, -57.74850,
,,,35.75793, -59.34850,
,,,36.99096, -62.94850,
,,,38.22399, -72.54850,
,,,39.45702, -68.54850,
,,,40.69005, -60.54850,
,,,41.92308, -59.34850,
,,,43.15611, -59.74850,
,,,44.38914, -63.34850,
,,,45.62217, -65.34850,
,,,46.85520, -65.74850,
,,,48.08823, -62.54850,
,,,49.32126, -53.34850,
,,,50.55429, -44.14850,
,,,51.78732, -41.34850,
,,,53.02035, -42.54850,
,,,54.25338, -45.34850,
,,,55.48641, -58.54850,
,,,56.71944, -57.34850,
,,,57.95247, -53.74850,
,,,59.18550, -53.34850,
,,,60.41853, -53.74850,
,,,61.65156, -55.74850,
,,,62.88459, -58.54850,
,,,64.11762, -57.34850,
,,,65.35065, -58.54850,
,,,66.58368, -62.94850,
,,,67.81671, -65.34850,
,,,69.04974, -58.94850,
,,,70.28277, -55.34850,
,,,71.51580, -52.94850,
,,,72.74883, -54.54850,
,,,73.98186, -59.34850,
,,,75.21489, -66.54850,
,,,76.44792, -61.34850,
,,,77.68095, -59.34850,
,,,78.91398, -61.34850,
,,,80.14701, -60.94850,
,,,81.38004, -66.54850,
,,,82.61307, -65.34850,
,,,83.84610, -62.94850,
,,,85.07913, -65.34850,
,,,86.31216, -63.34850,
,,,87.54519, -59.34850,
,,,88.77822, -62.54850,
,,,90.01125, -63.34850,
,,,91.24428, -64.14850,
,,,92.47731, -60.54850,
,,,93.71034, -60.54850,
,,,94.94337, -58.94850,
,,,96.17640, -59.74850,
,,,97.40943, -58.54850,
,,,98.64246, -58.94850,
,,,99.87549, -58.94850,
,,,101.10852, -60.14850,
,,,102.34155, -62.54850,
,,,103.57458, -63.34850,
,,,104.80761, -61.34850,
,,,106.04064, -58.94850,
,,,107.27367, -59.34850,
,,,108.50670, -61.34850,
,,,109.73973, -65.34850,
,,,110.97276, -69.34850,
,,,112.20579, -61.34850,
,,,113.43882, -55.34850,
,,,114.67185, -54.14850,
,,,115.90488, -55.74850,
,,,117.13791, -53.74850,
,,,118.37094, -53.74850,
,,,119.60397, -54.14850,
,,,120.83700, -56.14850,
,,,122.07003, -52.54850,
,,,123.30306, -45.74850,
,,,124.53609, -45.74850,
,,,125.76912, -46.54850,
,,,127.00215, -53.34850,
,,,128.23518, -62.54850,
,,,129.46821, -65.34850,
,,,130.70124, -59.74850,
,,,131.93427, -58.54850,
,,,133.16730, -59.34850,
,,,134.40033, -58.14850,
,,,135.63336, -58.14850,
,,,136.86639, -64.14850,
,,,138.09942, -68.54850,
,,,139.33245, -58.14850,
,,,140.56548, -56.94850,
,,,141.79851, -56.14850,
,,,143.03154, -58.14850,
,,,144.26457, -61.34850,
,,,145.49760, -69.34850,
,,,146.73063, -68.54850,
,,,147.96366, -64.14850,
,,,149.19669, -62.94850,
,,,150.42972, -63.34850,
,,,151.66275, -57.34850,
,,,152.89578, -56.14850,
,,,154.12881, -57.74850,
,,,155.36184, -64.14850,
,,,156.59487, -58.54850,
,,,157.82790, -58.94850,
,,,159.06093, -64.14850,
,,,160.29396, -66.54850,
,,,161.52699, -64.14850,
,,,162.76002, -65.34850,
,,,163.99305, -68.54850,
,,,165.22608, -64.14850,
,,,166.45911, -62.54850,
,,,167.69214, -65.34850,
,,,168.92517, -61.34850,
,,,170.15820, -59.34850,
,,,171.39123, -61.34850,
,,,172.62426, -62.94850,
,,,173.85729, -62.94850,
,,,175.09032, -60.94850,
,,,176.32335, -58.14850,
,,,177.55638, -55.34850,
,,,178.78941, -53.74850,
,,,180.02244, -52.54850,
,,,181.25547, -55.34850,
,,,182.48850, -62.54850,
,,,183.72153, -61.34850,
,,,184.95456, -59.34850,
,,,186.18759, -60.14850,
,,,187.42062, -66.54850,
,,,188.65365, -64.14850,
,,,189.88668, -59.34850,
,,,191.11971, -58.54850,
,,,192.35274, -65.34850,
,,,193.58577, -68.54850,
,,,194.81880, -65.34850,
,,,196.05183, -63.34850,
,,,197.28486, -58.14850,
,,,198.51789, -56.94850,
,,,199.75092, -55.74850,
,,,200.98395, -57.74850,
,,,202.21698, -63.34850,
,,,203.45001, -60.14850,
,,,204.68304, -60.94850,
,,,205.91607, -68.54850,
,,,207.14910, -68.54850,
,,,208.38213, -57.74850,
,,,209.61516, -55.74850,
,,,210.84819, -57.34850,
,,,212.08122, -59.74850,
,,,213.31425, -63.34850,
,,,214.54728, -69.34850,
,,,215.78031, -69.34850,
,,,217.01334, -65.34850,
,,,218.24637, -64.14850,
,,,219.47940, -74.94850,
,,,220.71243, -66.54850,
,,,221.94546, -59.34850,
,,,223.17849, -62.94850,
,,,224.41152, -69.34850,
,,,225.64455, -64.14850,
,,,226.87758, -62.54850,
,,,228.11061, -65.74850,
,,,229.34364, -66.54850,
,,,230.57667, -62.54850,
,,,231.80970, -62.54850,
,,,233.04273, -59.34850,
,,,234.27576, -59.74850,
,,,235.50879, -56.14850,
,,,236.74182, -56.94850,
,,,237.97485, -65.34850,
,,,239.20788, -61.34850,
,,,240.44091, -59.34850,
,,,241.67394, -60.14850,
,,,242.90697, -61.34850,
,,,244.14000, -58.14850,
,,,245.37303, -56.14850,
,,,246.60606, -55.34850,
,,,247.83909, -54.14850,
,,,249.07212, -55.74850,
,,,250.30515, -59.34850,
,,,251.53818, -66.54850,
,,,252.77121, -66.54850,
,,,254.00424, -58.14850,
,,,255.23727, -55.74850,
,,,256.47030, -55.74850,
,,,257.70333, -59.34850,
,,,258.93636, -74.94850,
,,,260.16939, -65.34850,
,,,261.40242, -65.34850,
,,,262.63545, -61.34850,
,,,263.86848, -72.54850,
,,,265.10151, -64.14850,
,,,266.33454, -58.14850,
,,,267.56757, -58.14850,
,,,268.80060, -63.34850,
,,,270.03363, -74.94850,
,,,271.26666, -62.54850,
,,,272.49969, -65.74850,
,,,273.73272, -52.54850,
,,,274.96575, -50.14850,
,,,276.19878, -48.54850,
,,,277.43181, -50.14850,
,,,278.66484, -57.74850,
,,,279.89787, -57.74850,
,,,281.13090, -56.94850,
,,,282.36393, -58.94850,
,,,283.59696, -57.74850,
,,,284.82999, -58.14850,
,,,286.06302, -58.14850,
,,,287.29605, -58.14850,
,,,288.52908, -62.54850,
,,,289.76211, -65.74850,
,,,290.99514, -74.94850,
,,,292.22817, -74.94850,
,,,293.46120, -65.34850,
,,,294.69423, -62.94850,
,,,295.92726, -61.34850,
,,,297.16029, -65.34850,
,,,298.39332, -68.54850,
,,,299.62635, -65.34850,
,,,300.85938, -65.34850,
,,,302.09241, -61.34850,
,,,303.32544, -61.34850,
,,,304.55847, -65.34850,
,,,305.79150, -68.54850,
,,,307.02453, -66.54850,
,,,308.25756, -72.54850,
,,,309.49059, -68.54850,
,,,310.72362, -69.34850,
,,,311.95665, -65.74850,
,,,313.18968, -74.94850,
,,,314.42271, -68.54850,
,,,315.65574, -72.54850,
,,,316.88877, -69.34850,
,,,318.12180, -72.54850,
,,,319.35483, -69.34850,
,,,320.58786, -62.94850,
,,,321.82089, -58.14850,
,,,323.05392, -58.54850,
,,,324.28695, -68.54850,
,,,325.51998, -66.54850,
,,,326.75301, -60.14850,
,,,327.98604, -60.14850,
,,,329.21907, -62.94850,
,,,330.45210, -74.94850,
,,,331.68513, -65.34850,
,,,332.91816, -69.34850,
,,,334.15119, -58.54850,
,,,335.38422, -53.74850,
,,,336.61725, -54.54850,
,,,337.85028, -57.34850,
,,,339.08331, -58.14850,
,,,340.31634, -56.14850,
,,,341.54937, -56.14850,
,,,342.78240, -58.14850,
,,,344.01543, -64.14850,
,,,345.24846, -68.54850,
,,,346.48149, -61.34850,
,,,347.71452, -60.14850,
,,,348.94755, -64.14850,
,,,350.18058, -65.74850,
,,,351.41361, -64.14850,
,,,352.64664, -61.34850,
,,,353.87967, -58.54850,
,,,355.11270, -57.74850,
,,,356.34573, -56.54850,
,,,357.57876, -57.34850,
,,,358.81179, -65.74850,
,,,360.04482, -72.54850,
,,,361.27785, -68.54850,
,,,362.51088, -68.54850,
,,,363.74391, -72.54850,
,,,364.97694, -68.54850,
,,,366.20997, -66.54850,
,,,367.44300, -64.14850,
,,,368.67603, -62.94850,
,,,369.90906, -64.14850,
,,,371.14209, -62.94850,
,,,372.37512, -69.34850,
,,,373.60815, -74.94850,
,,,374.84118, -69.34850,
,,,376.07421, -68.54850,
,,,377.30724, -68.54850,
,,,378.54027, -74.94850,
,,,379.77330, -65.34850,
,,,381.00633, -69.34850,
,,,382.23936, -65.34850,
,,,383.47239, -62.94850,
,,,384.70542, -61.34850,
,,,385.93845, -60.94850,
,,,387.17148, -60.14850,
,,,388.40451, -56.54850,
,,,389.63754, -58.14850,
,,,390.87057, -55.34850,
,,,392.10360, -61.34850,
,,,393.33663, -52.14850,
,,,394.56966, -57.74850,
,,,395.80269, -41.34850,
,,,397.03572, -26.54850,
,,,398.26875, -13.34850,
,,,399.50178, -10.94850,
,,,400.73481, -10.94850,
,,,401.96784, -13.74850,
,,,403.20087, -28.14850,
,,,404.43390, -44.14850,
,,,405.66693, -50.14850,
,,,406.89996, -65.34850,
,,,408.13299, -51.34850,
,,,409.36602, -54.14850,
,,,410.59905, -55.34850,
,,,411.83208, -61.34850,
,,,413.06511, -60.14850,
,,,414.29814, -59.74850,
,,,415.53117, -69.34850,
,,,416.76420, -62.94850,
,,,417.99723, -72.54850,
,,,419.23026, -58.14850,
,,,420.46329, -54.94850,
,,,421.69632, -56.14850,
,,,422.92935, -62.54850,
,,,424.16238, -55.34850,
,,,425.39541, -57.74850,
,,,426.62844, -62.54850,
,,,427.86147, -66.54850,
,,,429.09450, -62.54850,
,,,430.32753, -61.34850,
,,,431.56056, -62.94850,
,,,432.79359, -74.94850,
,,,434.02662, -72.54850,
,,,435.25965, -64.14850,
,,,436.49268, -62.54850,
,,,437.72571, -60.94850,
,,,438.95874, -62.94850,
,,,440.19177, -64.14850,
,,,441.42480, -61.34850,
,,,442.65783, -60.94850,
,,,443.89086, -62.94850,
,,,445.12389, -68.54850,
,,,446.35692, -74.94850,
,,,447.58995, -62.54850,
,,,448.82298, -66.54850,
,,,450.05601, -65.34850,
,,,451.28904, -62.94850,
,,,452.52207, -58.94850,
,,,453.75510, -56.54850,
,,,454.98813, -58.14850,
,,,456.22116, -62.94850,
,,,457.45419, -68.54850,
,,,458.68722, -62.94850,
,,,459.92025, -59.34850,
,,,461.15328, -58.14850,
,,,462.38631, -58.14850,
,,,463.61934, -60.94850,
,,,464.85237, -64.14850,
,,,466.08540, -68.54850,
,,,467.31843, -66.54850,
,,,468.55146, -62.54850,
,,,469.78449, -58.94850,
,,,471.01752, -60.14850,
,,,472.25055, -61.34850,
,,,473.48358, -61.34850,
,,,474.71661, -63.34850,
,,,475.94964, -64.14850,
,,,477.18267, -62.54850,
,,,478.41570, -64.14850,
,,,479.64873, -72.54850,
,,,480.88176, -74.94850,
,,,482.11479, -74.94850,
,,,483.34782, -69.34850,
,,,484.58085, -74.94850,
,,,485.81388, -62.94850,
,,,487.04691, -61.34850,
,,,488.27994, -56.94850,
,,,489.51297, -57.34850,
,,,490.74600, -58.54850,
,,,491.97903, -57.34850,
,,,493.21206, -58.14850,
,,,494.44509, -56.14850,
,,,495.67812, -58.14850,
,,,496.91115, -58.14850,
,,,498.14418, -60.14850,
,,,499.37721, -59.74850,
,,,500.61024, -58.14850,
,,,501.84327, -56.54850,
,,,503.07630, -58.14850,
,,,504.30933, -65.34850,
,,,505.54236, -60.94850,
,,,506.77539, -57.34850,
,,,508.00842, -54.54850,
,,,509.24145, -57.34850,
,,,510.47448, -64.14850,
,,,511.70751, -65.74850,
,,,512.94054, -62.54850,
,,,514.17357, -59.74850,
,,,515.40660, -59.74850,
,,,516.63963, -66.54850,
,,,517.87266, -65.34850,
,,,519.10569, -60.14850,
,,,520.33872, -60.94850,
,,,521.57175, -62.54850,
,,,522.80478, -46.14850,
,,,524.03781, -42.94850,
,,,525.27084, -42.94850,
,,,526.50387, -44.14850,
,,,527.73690, -57.74850,
,,,528.96993, -61.34850,
,,,530.20296, -69.34850,
,,,531.43599, -66.54850,
,,,532.66902, -68.54850,
,,,533.90205, -65.34850,
,,,535.13508, -62.94850,
,,,536.36811, -65.34850,
,,,537.60114, -63.34850,
,,,538.83417, -58.54850,
,,,540.06720, -56.14850,
,,,541.30023, -56.14850,
,,,542.53326, -60.14850,
,,,543.76629, -61.34850,
,,,544.99932, -59.34850,
,,,546.23235, -56.54850,
,,,547.46538, -56.94850,
,,,548.69841, -62.94850,
,,,549.93144, -74.94850,
,,,551.16447, -69.34850,
,,,552.39750, -63.34850,
,,,553.63053, -60.94850,
,,,554.86356, -63.34850,
,,,556.09659, -62.94850,
,,,557.32962, -65.74850,
,,,558.56265, -66.54850,
,,,559.79568, -61.34850,
,,,561.02871, -62.54850,
,,,562.26174, -74.94850,
,,,563.49477, -65.74850,
,,,564.72780, -59.74850,
,,,565.96083, -58.54850,
,,,567.19386, -59.74850,
,,,568.42689, -65.34850,
,,,569.65992, -74.94850,
,,,570.89295, -65.34850,
,,,572.12598, -61.34850,
,,,573.35901, -62.54850,
,,,574.59204, -64.14850,
,,,575.82507, -72.54850,
,,,577.05810, -74.94850,
,,,578.29113, -65.34850,
,,,579.52416, -62.54850,
,,,580.75719, -65.34850,
,,,581.99022, -65.34850,
,,,583.22325, -62.54850,
,,,584.45628, -64.14850,
,,,585.68931, -65.34850,
,,,586.92234, -66.54850,
,,,588.15537, -74.94850,
,,,589.38840, -69.34850,
,,,590.62143, -68.54850,
,,,591.85446, -65.34850,
,,,593.08749, -65.34850,
,,,594.32052, -65.34850,
,,,595.55355, -62.54850,
,,,596.78658, -57.34850,
,,,598.01961, -57.34850,
,,,599.25264, -64.14850,
,,,600.48567, -69.34850,
,,,601.71870, -65.74850,
,,,602.95173, -61.34850,
,,,604.18476, -60.94850,
,,,605.41779, -61.34850,
,,,606.65082, -62.94850,
,,,607.88385, -65.34850,
,,,609.11688, -74.94850,
,,,610.34991, -72.54850,
,,,611.58294, -68.54850,
,,,612.81597, -66.54850,
,,,614.04900, -65.74850,
,,,615.28203, -65.74850,
,,,616.51506, -74.94850,
,,,617.74809, -68.54850,
,,,618.98112, -65.34850,
,,,620.21415, -64.14850,
,,,621.44718, -64.14850,
,,,622.68021, -63.34850,
,,,623.91324, -62.54850,
,,,625.14627, -56.94850,
,,,626.37930, -54.14850,
,,,627.61233, -56.14850,
,,,628.84536, -61.34850,
,,,630.07839, -63.34850,
,,,631.31142, -57.34850,
,,,632.54445, -54.54850,
,,,633.77748, -55.34850,
,,,635.01051, -57.74850,
,,,636.24354, -62.94850,
,,,637.47657, -68.54850,
,,,638.70960, -69.34850,
,,,639.94263, -74.94850,
,,,641.17566, -74.94850,
,,,642.40869, -74.94850,
,,,643.64172, -74.94850,
,,,644.87475, -68.54850,
,,,646.10778, -65.74850,
,,,647.34081, -63.34850,
,,,648.57384, -63.34850,
,,,649.80687, -62.54850,
,,,651.03990, -68.54850,
,,,652.27293, -74.94850,
,,,653.50596, -74.94850,
,,,654.73899, -65.34850,
,,,655.97202, -61.34850,
,,,657.20505, -59.34850,
,,,658.43808, -56.54850,
,,,659.67111, -56.54850,
,,,660.90414, -60.94850,
,,,662.13717, -66.54850,
,,,663.37020, -61.34850,
,,,664.60323, -59.74850,
,,,665.83626, -60.94850,
,,,667.06929, -62.54850,
,,,668.30232, -62.54850,
,,,669.53535, -74.94850,
,,,670.76838, -74.94850,
,,,672.00141, -59.74850,
,,,673.23444, -53.34850,
,,,674.46747, -50.54850,
,,,675.70050, -50.94850,
,,,676.93353, -50.94850,
,,,678.16656, -59.34850,
,,,679.39959, -56.14850,
,,,680.63262, -54.54850,
,,,681.86565, -58.14850,
,,,683.09868, -60.14850,
,,,684.33171, -62.94850,
,,,685.56474, -64.14850,
,,,686.79777, -62.94850,
,,,688.03080, -64.14850,
,,,689.26383, -68.54850,
,,,690.49686, -60.14850,
,,,691.72989, -56.54850,
,,,692.96292, -58.94850,
,,,694.19595, -62.94850,
,,,695.42898, -74.94850,
,,,696.66201, -68.54850,
,,,697.89504, -68.54850,
,,,699.12807, -63.34850,
,,,700.36110, -61.34850,
,,,701.59413, -59.34850,
,,,702.82716, -58.54850,
,,,704.06019, -60.54850,
,,,705.29322, -64.14850,
,,,706.52625, -64.14850,
,,,707.75928, -64.14850,
,,,708.99231, -64.14850,
,,,710.22534, -68.54850,
,,,711.45837, -74.94850,
,,,712.69140, -62.94850,
,,,713.92443, -62.94850,
,,,715.15746, -61.34850,
,,,716.39049, -65.34850,
,,,717.62352, -61.34850,
,,,718.85655, -61.34850,
,,,720.08958, -58.54850,
,,,721.32261, -61.34850,
,,,722.55564, -61.34850,
,,,723.78867, -65.34850,
,,,725.02170, -69.34850,
,,,726.25473, -74.94850,
,,,727.48776, -68.54850,
,,,728.72079, -65.74850,
,,,729.95382, -68.54850,
,,,731.18685, -65.34850,
,,,732.41988, -61.34850,
,,,733.65291, -64.14850,
,,,734.88594, -69.34850,
,,,736.11897, -74.94850,
,,,737.35200, -74.94850,
,,,738.58503, -68.54850,
,,,739.81806, -69.34850,
,,,741.05109, -72.54850,
,,,742.28412, -60.14850,
,,,743.51715, -55.34850,
,,,744.75018, -55.74850,
,,,745.98321, -61.34850,
,,,747.21624, -64.14850,
,,,748.44927, -60.94850,
,,,749.68230, -57.74850,
,,,750.91533, -58.14850,
,,,752.14836, -57.74850,
,,,753.38139, -59.34850,
,,,754.61442, -63.34850,
,,,755.84745, -61.34850,
,,,757.08048, -65.34850,
,,,758.31351, -65.74850,
,,,759.54654, -68.54850,
,,,760.77957, -62.94850,
,,,762.01260, -60.94850,
,,,763.24563, -61.34850,
,,,764.47866, -72.54850,
,,,765.71169, -62.94850,
,,,766.94472, -74.94850,
,,,768.17775, -62.94850,
,,,769.41078, -60.14850,
,,,770.64381, -58.14850,
,,,771.87684, -59.34850,
,,,773.10987, -63.34850,
,,,774.34290, -74.94850,
,,,775.57593, -69.34850,
,,,776.80896, -59.74850,
,,,778.04199, -61.34850,
,,,779.27502, -62.94850,
,,,780.50805, -61.34850,
,,,781.74108, -58.14850,
,,,782.97411, -58.14850,
,,,784.20714, -61.34850,
,,,785.44017, -65.34850,
,,,786.67320, -65.74850,
,,,787.90623, -61.34850,
,,,789.13926, -62.54850,
,,,790.37229, -61.34850,
,,,791.60532, -58.54850,
,,,792.83835, -58.94850,
,,,794.07138, -62.94850,
,,,795.30441, -68.54850,
,,,796.53744, -63.34850,
,,,797.77047, -31.34850,
,,,799.00350, -25.74850,
,,,800.23653, -25.34850,
,,,801.46956, -26.14850,
,,,802.70259, -33.34850,
,,,803.93562, -56.54850,
,,,805.16865, -68.54850,
,,,806.40168, -72.54850,
,,,807.63471, -74.94850,
,,,808.86774, -62.94850,
,,,810.10077, -65.74850,
,,,811.33380, -74.94850,
,,,812.56683, -61.34850,
,,,813.79986, -55.74850,
,,,815.03289, -54.54850,
,,,816.26592, -55.34850,
,,,817.49895, -59.34850,
,,,818.73198, -63.34850,
,,,819.96501, -61.34850,
,,,821.19804, -61.34850,
,,,822.43107, -60.94850,
,,,823.66410, -61.34850,
,,,824.89713, -62.54850,
,,,826.13016, -63.34850,
,,,827.36319, -62.54850,
,,,828.59622, -64.14850,
,,,829.82925, -64.14850,
,,,831.06228, -65.34850,
,,,832.29531, -63.34850,
,,,833.52834, -65.74850,
,,,834.76137, -74.94850,
,,,835.99440, -65.34850,
,,,837.22743, -61.34850,
,,,838.46046, -65.34850,
,,,839.69349, -68.54850,
,,,840.92652, -65.74850,
,,,842.15955, -66.54850,
,,,843.39258, -65.74850,
,,,844.62561, -72.54850,
,,,845.85864, -66.54850,
,,,847.09167, -64.14850,
,,,848.32470, -74.94850,
,,,849.55773, -68.54850,
,,,850.79076, -66.54850,
,,,852.02379, -66.54850,
,,,853.25682, -69.34850,
,,,854.48985, -66.54850,
,,,855.72288, -65.34850,
,,,856.95591, -62.54850,
,,,858.18894, -64.14850,
,,,859.42197, -62.94850,
,,,860.65500, -62.94850,
,,,861.88803, -68.54850,
,,,863.12106, -69.34850,
,,,864.35409, -62.94850,
,,,865.58712, -62.94850,
,,,866.82015, -65.34850,
,,,868.05318, -66.54850,
,,,869.28621, -62.94850,
,,,870.51924, -62.94850,
,,,871.75227, -62.94850,
,,,872.98530, -60.14850,
,,,874.21833, -60.94850,
,,,875.45136, -65.34850,
,,,876.68439, -66.54850,
,,,877.91742, -62.94850,
,,,879.15045, -62.54850,
,,,880.38348, -62.54850,
,,,881.61651, -69.34850,
,,,882.84954, -74.94850,
,,,884.08257, -63.34850,
,,,885.31560, -63.34850,
,,,886.54863, -65.74850,
,,,887.78166, -74.94850,
,,,889.01469, -68.54850,
,,,890.24772, -59.34850,
,,,891.48075, -57.74850,
,,,892.71378, -57.34850,
,,,893.94681, -61.34850,
,,,895.17984, -61.34850,
,,,896.41287, -58.14850,
,,,897.64590, -56.94850,
,,,898.87893, -56.94850,
,,,900.11196, -62.94850,
,,,901.34499, -72.54850,
,,,902.57802, -57.34850,
,,,903.81105, -56.14850,
,,,905.04408, -58.94850,
,,,906.27711, -60.14850,
,,,907.51014, -63.34850,
,,,908.74317, -58.94850,
,,,909.97620, -57.34850,
,,,911.20923, -58.14850,
,,,912.44226, -60.54850,
,,,913.67529, -65.34850,
,,,914.90832, -60.94850,
,,,916.14135, -56.94850,
,,,917.37438, -55.34850,
,,,918.60741, -56.94850,
,,,919.84044, -64.14850,
,,,921.07347, -58.14850,
,,,922.30650, -48.54850,
,,,923.53953, -38.94850,
,,,924.77256, -38.14850,
,,,926.00559, -38.54850,
,,,927.23862, -44.54850,
,,,928.47165, -56.14850,
,,,929.70468, -54.94850,
,,,930.93771, -60.14850,
,,,932.17074, -61.34850,
,,,933.40377, -74.94850,
,,,934.63680, -72.54850,
,,,935.86983, -69.34850,
,,,937.10286, -68.54850,
,,,938.33589, -60.54850,
,,,939.56892, -60.94850,
,,,940.80195, -65.34850,
,,,942.03498, -68.54850,
,,,943.26801, -59.34850,
,,,944.50104, -54.94850,
,,,945.73407, -54.54850,
,,,946.96710, -56.54850,
,,,948.20013, -57.74850,
,,,949.43316, -60.54850,
,,,950.66619, -61.34850,
,,,951.89922, -65.34850,
,,,953.13225, -72.54850,
,,,954.36528, -68.54850,
,,,955.59831, -69.34850,
,,,956.83134, -69.34850,
,,,958.06437, -74.94850,
,,,959.29740, -72.54850,
,,,960.53043, -66.54850,
,,,961.76346, -61.34850,
,,,962.99649, -58.14850,
,,,964.22952, -57.74850,
